----------------------------------------
Begin PBS Prologue Tue Jul 19 14:17:52 EDT 2016 1468952272
Job ID:		63169330.gm-1r16-n04.guillimin.clumeq.ca
Username:	dbadescu
Group:		wst-164-01
Nodes:		sw-2r14-n27
End PBS Prologue Tue Jul 19 14:17:52 EDT 2016 1468952272
----------------------------------------
pypack /gs/project/wst-164-ab/share/raglab_prod/software/naseq_pip/naseq_pip_0_9_7/pypack
spath:  /gs/project/wst-164-ab/share/raglab_prod/software/naseq_pip/naseq_pip_0_9_7/pypack:/gs/project/wst-164-ab/share/raglab_prod/software/naseq_pip/naseq_srv_0_9_4/pysrc:/gs/project/wst-164-ab/share/raglab_prod/software/python/Python-3.5.1-inst/lib/python3.5/site-packages
ppath:  /gs/project/wst-164-ab/share/raglab_prod/software/naseq_pip/naseq_pip_0_9_7/pypack:/gs/project/wst-164-ab/share/raglab_prod/software/naseq_pip/naseq_srv_0_9_4/pysrc:/gs/project/wst-164-ab/share/raglab_prod/software/python/Python-3.5.1-inst/lib/python3.5/site-packages
spath:  /gs/project/wst-164-ab/share/raglab_prod/software/naseq_pip/naseq_pip_0_9_7/pypack:/gs/project/wst-164-ab/share/raglab_prod/software/naseq_pip/naseq_srv_0_9_4/pysrc:/gs/project/wst-164-ab/share/raglab_prod/software/python/Python-3.5.1-inst/lib/python3.5/site-packages
:----------------------
spawn_clients_blocking...  ('12', '1700')
in spawn_clients... 12 1700
self.lab_dir /gs/project/wst-164-aa
in client_naseq_factory ....
in naseq_factory ....
project_type: -------------------------- DNA
self.lab_dir /gs/project/wst-164-aa
in ScanConfigDnaSeq scan_local...
in scan_local...
proj_dir:  /gs/project/wst-164-aa/share/expr/a028-x054-1735-e10
self.conf_dir:  /gs/project/wst-164-aa/share/expr/a028-x054-1735-e10/conf
gr8:              skip                smpgrp_name          short_name  cls_idx  \
smpgrp_idx                                                                 
0              0           TC_EGFR_NTC-a028     TC_EGFR_NTC_E10        0   
1              0          TC_EGFRn_200-a028    TC_EGFRn_200_E10        0   
2              0  TC_EGFRn_RNEASY_1OF2-a028  TC_EGFRn_RN_12_E10        0   
3              0  TC_EGFRn_RNEASY_2OF2-a028  TC_EGFRn_RN_22_E10        0   
4              0          TC_EGFRp_200-a028    TC_EGFRp_200_E10        0   
5              0  TC_EGFRp_RNEASY_1OF2-a028  TC_EGFRp_RN_12_E10        0   
6              0  TC_EGFRp_RNEASY_2OF2-a028  TC_EGFRp_RN_22_E10        0   

               vshort_name  
smpgrp_idx                  
0              TC_EGFR_NTC  
1             TC_EGFRn_200  
2           TC_EGFRn_RN_12  
3           TC_EGFRn_RN_22  
4             TC_EGFRp_200  
5           TC_EGFRp_RN_12  
6           TC_EGFRp_RN_22  
pdsrv:         host_name
idx             
0    sw-2r14-n12
redis_host:  sw-2r14-n12
local_host:  sw-2r14-n27
in connect_redis...
error 

in finally
host:  sw-2r14-n12
curl -I http://localhost:5000 2>/dev/null | head -n 1 | cut -d$' ' -f2
nodectrl port results:  
nohup naseq_server.py --nodectrl >& /gs/project/wst-164-aa/share/expr/a028-x054-1735-e10/redis/nodectrl-sw-2r14-n27.log &
gid:  59
nohup naseq_server.py --loop 59 >& /gs/project/wst-164-aa/share/expr/a028-x054-1735-e10/redis/wk-59.log &
gid:  62
nohup naseq_server.py --loop 62 >& /gs/project/wst-164-aa/share/expr/a028-x054-1735-e10/redis/wk-62.log &
gid:  65
nohup naseq_server.py --loop 65 >& /gs/project/wst-164-aa/share/expr/a028-x054-1735-e10/redis/wk-65.log &
gid:  68
nohup naseq_server.py --loop 68 >& /gs/project/wst-164-aa/share/expr/a028-x054-1735-e10/redis/wk-68.log &
gid:  71
nohup naseq_server.py --loop 71 >& /gs/project/wst-164-aa/share/expr/a028-x054-1735-e10/redis/wk-71.log &
gid:  74
nohup naseq_server.py --loop 74 >& /gs/project/wst-164-aa/share/expr/a028-x054-1735-e10/redis/wk-74.log &
gid:  77
nohup naseq_server.py --loop 77 >& /gs/project/wst-164-aa/share/expr/a028-x054-1735-e10/redis/wk-77.log &
gid:  80
nohup naseq_server.py --loop 80 >& /gs/project/wst-164-aa/share/expr/a028-x054-1735-e10/redis/wk-80.log &
gid:  83
nohup naseq_server.py --loop 83 >& /gs/project/wst-164-aa/share/expr/a028-x054-1735-e10/redis/wk-83.log &
gid:  86
nohup naseq_server.py --loop 86 >& /gs/project/wst-164-aa/share/expr/a028-x054-1735-e10/redis/wk-86.log &
gid:  89
nohup naseq_server.py --loop 89 >& /gs/project/wst-164-aa/share/expr/a028-x054-1735-e10/redis/wk-89.log &
gid:  92
nohup naseq_server.py --loop 92 >& /gs/project/wst-164-aa/share/expr/a028-x054-1735-e10/redis/wk-92.log &
in start_drillbit ...
. /gs/project/wst-164-aa/share/expr/a028-x054-1735-e10/servers/drill/sw-2r14-n27/conf/drill-env.sh; \
nohup $DRILL_HOME/bin/drillbit.sh restart >& /gs/project/wst-164-aa/share/expr/a028-x054-1735-e10/servers/drill/sw-2r14-n27/drill_proc.log &
in start_sparkslave ...
txt_out: 
 b'#!/usr/bin/env bash\n\nexport PYSPARK_PYTHON=python3\n\nexport SPARK_MASTER_IP=sw-2r14-n12\nexport PROJ_DIR=/gs/project/wst-164-aa/share/expr/a028-x054-1735-e10\nexport SPARK_LOC_CONF_DIR=$PROJ_DIR/servers/spark/sw-2r14-n27\nexport SPARK_CONF_DIR=$SPARK_LOC_CONF_DIR/conf\nexport SPARK_LOG_DIR=$SPARK_LOC_CONF_DIR/log\nexport SPARK_PID_DIR=$SPARK_LOC_CONF_DIR/pid\n\n#export CLASSPATH="$CLASSPATH:/gs/project/wst-164-ab/share/raglab_prod/software/derby/db-derby-10.10.2.0-bin/lib/derbyclient.jar"\n#export SPARK_CLASSPATH=$CLASSPATH\n#export SPARK_SUBMIT_CLASSPATH=$CLASSPATH\n'
. /gs/project/wst-164-aa/share/expr/a028-x054-1735-e10/servers/spark/sw-2r14-n27/conf/spark-env.sh; \
nohup $SPARK_HOME/sbin/start-slave.sh spark://sw-2r14-n12:7077 >& /gs/project/wst-164-aa/share/expr/a028-x054-1735-e10/servers/spark/sw-2r14-n27/spark_proc_slave.log &
----------------------------------------
Begin PBS Epilogue Tue Jul 19 16:18:24 EDT 2016 1468959504
Job ID:		63169330.gm-1r16-n04.guillimin.clumeq.ca
Username:	dbadescu
Group:		wst-164-01
Job Name:	a028-cl
Session:	27340
Limits:		neednodes=1:ppn=12,nodes=1:ppn=12,pmem=1700mb,walltime=32:00:00
Resources:	cput=01:54:40,energy_used=0,mem=8282940kb,vmem=22190200kb,walltime=02:00:32
Queue:		hbplus
Account:	wst-164-ab
Exit code:	0
Nodes:	sw-2r14-n27
Killing leftovers...

End PBS Epilogue Tue Jul 19 16:18:25 EDT 2016 1468959505
----------------------------------------
